Peeking Inside the ‘Black Box’
…
## Friedman 1 benchmark example

Consider the following regression model:
`\begin{equation}
  Y_i = 10 \sin\left(\pi X_{1i} X_{2i}\right) + 20 \left(X_{3i} - 0.5\right) ^ 2 + 10 X_{4i} + 5 X_{5i} + \epsilon_i, \quad i = 1, 2, \dots, n,
\end{equation}`
where `\(\epsilon_i \stackrel{iid}{\sim} N\left(0, \sigma^2\right)\)`.

```r
trn <- vip::gen_friedman(500, sigma = 1, seed = 101) # simulate training data
tibble::as_tibble(trn) # inspect output
```

```
## # A tibble: 500 × 11
##        y     x1    x2    x3    x4     x5      x6    x7    x8    x9   x10
##    <dbl>  <dbl> <dbl> <dbl> <dbl>  <dbl>   <dbl> <dbl> <dbl> <dbl> <dbl>
##  1 14.9  0.372  0.406 0.102 0.322 0.693  0.758   0.518 0.530 0.878 0.763
##  2 15.3  0.0438 0.602 0.602 0.999 0.776  0.533   0.509 0.487 0.118 0.176
##  3 15.1  0.710  0.362 0.254 0.548 0.0180 0.765   0.715 0.844 0.334 0.118
##  4 10.7  0.658  0.291 0.542 0.327 0.230  0.301   0.177 0.346 0.474 0.283
##  5 17.6  0.250  0.794 0.383 0.947 0.462  0.00487 0.270 0.114 0.489 0.311
##  6 18.3  0.300  0.701 0.992 0.386 0.666  0.198   0.924 0.775 0.736 0.974
##  7 14.6  0.585  0.365 0.283 0.488 0.845  0.466   0.715 0.202 0.905 0.640
##  8 17.0  0.333  0.552 0.858 0.509 0.697  0.388   0.260 0.355 0.517 0.165
##  9  8.54 0.622  0.118 0.490 0.390 0.468  0.360   0.572 0.891 0.682 0.717
## 10 15.0  0.546  0.150 0.476 0.706 0.829  0.373   0.192 0.873 0.456 0.694
## # … with 490 more rows
```
…
# Prediction wrapper for `fastshap::explain()`; has to return a 
# single (atomic) vector of predictions
pfun <- function(object, newdata) {  # computes prob(Survived=1|x)
  predict(object, data = newdata)$predictions[, 2]
}

# Estimate feature contributions for each imputed training set
X <- subset(titanic, select = -Survived)  # features only!
set.seed(1051)  # for reproducibility
*(ex.all <- explain(rfo, X = X, nsim = 100, adjust = TRUE,  pred_wrapper = pfun))
```

```
## # A tibble: 714 × 7
##     Pclass     Sex      Age     SibSp     Parch    Fare Embarked
##      <dbl>   <dbl>    <dbl>     <dbl>     <dbl>   <dbl>    <dbl>
##  1 -0.0416 -0.180  -0.00314  0.0135   -0.0110   -0.0405 -0.0196 
##  2  0.165   0.267  -0.0156   0.00123   0.00162   0.123   0.0339 
##  3 -0.118   0.224   0.0144   0.0226   -0.00727  -0.0312 -0.0208 
##  4  0.150   0.297   0.00748 -0.00627   0.00268   0.128  -0.0101 
##  5 -0.0387 -0.161  -0.0328   0.0132   -0.00480  -0.0660 -0.00403
##  6  0.0483 -0.197  -0.119   -0.00203  -0.00290   0.0724 -0.0120 
##  7 -0.0848 -0.0931  0.225   -0.161     0.0170   -0.0675 -0.00867
##  8 -0.106   0.267   0.0493   0.0368    0.0616    0.0215 -0.00420
##  9  0.0781  0.316   0.0434   0.000517 -0.000561  0.0166  0.0507 
## 10 -0.108   0.140   0.249   -0.0110    0.0423    0.0459 -0.00547
## # … with 704 more rows
```
…
